{"info":{"_postman_id":"7ea1b63e-5177-4286-af88-ce04ce85ee24","name":"Vimigo Collection","schema":"https://schema.getpostman.com/json/collection/v2.1.0/collection.json","_exporter_id":"24958385"},"item":[{"name":"CRUD","item":[{"name":"Register User","request":{"method":"POST","header":[],"url":{"raw":"http://127.0.0.1:8000/api/register?name=zakiman22&email=zakiman22@gmail.com&password=123&password_confirmation=123","protocol":"http","host":["127","0","0","1"],"port":"8000","path":["api","register"],"query":[{"key":"name","value":"zakiman22"},{"key":"email","value":"zakiman22@gmail.com"},{"key":"password","value":"123"},{"key":"password_confirmation","value":"123"}]}},"response":[{"name":"Register User","originalRequest":{"method":"POST","header":[],"url":{"raw":"http://127.0.0.1:8000/api/register?name=zakiman1&email=zakiman1@gmail.com&password=123&password_confirmation=123","protocol":"http","host":["127","0","0","1"],"port":"8000","path":["api","register"],"query":[{"key":"name","value":"zakiman1"},{"key":"email","value":"zakiman1@gmail.com"},{"key":"password","value":"123"},{"key":"password_confirmation","value":"123"}]}},"status":"OK","code":200,"_postman_previewlanguage":"json","header":[{"key":"Host","value":"127.0.0.1:8000"},{"key":"Date","value":"Sat, 17 Dec 2022 13:44:24 GMT"},{"key":"Date","value":"Sat, 17 Dec 2022 13:44:24 GMT"},{"key":"Connection","value":"close"},{"key":"X-Powered-By","value":"PHP/8.1.10"},{"key":"Cache-Control","value":"no-cache, private"},{"key":"Content-Type","value":"application/json"},{"key":"X-RateLimit-Limit","value":"60"},{"key":"X-RateLimit-Remaining","value":"58"},{"key":"Access-Control-Allow-Origin","value":"*"}],"cookie":[],"body":"{\n    \"user\": {\n        \"name\": \"zakiman1\",\n        \"email\": \"zakiman1@gmail.com\",\n        \"updated_at\": \"2022-12-17T13:44:24.000000Z\",\n        \"created_at\": \"2022-12-17T13:44:24.000000Z\",\n        \"id\": 4\n    },\n    \"token\": \"eyJ0eXAiOiJKV1QiLCJhbGciOiJSUzI1NiJ9.eyJhdWQiOiIzIiwianRpIjoiZWU2NjM4NWZjOTM4ZGY3M2QxMTBiMzUzM2FlMWMwN2ZhZmFlNzg1M2I1MzUwMGVjZDUzZTAxYzQ4YjNhY2M4NTc2YzgyNzM1MmQ2ODVmZGYiLCJpYXQiOjE2NzEyODQ2NjQuNTY4MzU3LCJuYmYiOjE2NzEyODQ2NjQuNTY4MzU4LCJleHAiOjE3MDI4MjA2NjQuNTY1NDc0LCJzdWIiOiI0Iiwic2NvcGVzIjpbXX0.kOPlECtNHeAvo4_CBjXOXdmlH5jO5KTZmyCz84T1OXM2muM_015uFY0v6HzP3ILEGoTAIb4LskFXXniGCouz4AVglRpK63W_BrZ-ZOWsUCnICUg8Sj8L5_jitej2rh-V5apX1zJoK_pFupzyvNUb4YqudCc4dXYsdA3keYeM15hcJ6mNnTOG_YQ-bDh4PUa4yyO3MWWguh54qNjdghHMLzNK350kMEMNPnS_Jh9Egss01368KmD2cU6TBxdBgNMTfLpa7RCvn64ZlaZFv89TBvq4f4t8mpoerjj1klDWpSCKR3Ce1A58DUqsB8PCXmxj4j8y2jF8aX9c_li_c4o3jrZFzeCX6mGbIl_K8MOOBb1-Ga--7QpCL30o12e4So6EpmgLIodDXVina9U0J8Br2SkP7utIIoBPMOjIoMe65fpR9Ip1kHatAxDTwFgr2BohJB2UF1hOUOebTSTaTgvkkw1IhVHmGcwtKLZ-zBs5P6qZTCwq_jSvh7wmj4TbEbtiInWVQuDLNkDnd2_LKZ81VGnD9i3BV7dtcJBKishQDx7VVRV4gehtqdP1iF8sqWtBT-UlNuHw0Sfc7oMOkK3tsCcuVO-kVOHEDq6YGWe0zv7By3B72uVm79gmIkaX9U3XStUtb_D4I-rvkbFjJiyfqI69TWeCRY1mv6mZqn5zl5U\"\n}"}]},{"name":"login user","request":{"auth":{"type":"noauth"},"method":"POST","header":[],"url":{"raw":"http://localhost:8000/api/login?email=ayam@gmail.com&password=123","protocol":"http","host":["localhost"],"port":"8000","path":["api","login"],"query":[{"key":"email","value":"ayam@gmail.com"},{"key":"password","value":"123"}]}},"response":[{"name":"login user","originalRequest":{"method":"POST","header":[],"url":{"raw":"http://localhost:8000/api/login?email=ayam@gmail.com&password=123","protocol":"http","host":["localhost"],"port":"8000","path":["api","login"],"query":[{"key":"email","value":"ayam@gmail.com"},{"key":"password","value":"123"}]}},"status":"OK","code":200,"_postman_previewlanguage":"json","header":[{"key":"Host","value":"localhost:8000"},{"key":"Date","value":"Sat, 17 Dec 2022 13:43:33 GMT"},{"key":"Date","value":"Sat, 17 Dec 2022 13:43:33 GMT"},{"key":"Connection","value":"close"},{"key":"X-Powered-By","value":"PHP/8.1.10"},{"key":"Cache-Control","value":"no-cache, private"},{"key":"Content-Type","value":"application/json"},{"key":"X-RateLimit-Limit","value":"60"},{"key":"X-RateLimit-Remaining","value":"59"},{"key":"Access-Control-Allow-Origin","value":"*"}],"cookie":[],"body":"{\n    \"token\": \"eyJ0eXAiOiJKV1QiLCJhbGciOiJSUzI1NiJ9.eyJhdWQiOiIzIiwianRpIjoiODc2NzdkMDA1MzUzOWZhNTNjMGQ1MTU2NjUyYzk0Y2JlOGIyOGQ5ODAxMGUyN2NmZDAwOWFlNjhiMzEzOWRhOWZmYzZjOTVkMjQyZjY4YjEiLCJpYXQiOjE2NzEyODQ2MTMuOTE0NTg5LCJuYmYiOjE2NzEyODQ2MTMuOTE0NTkxLCJleHAiOjE3MDI4MjA2MTMuOTA4MzIyLCJzdWIiOiIxIiwic2NvcGVzIjpbXX0.OwIZTE43YNVsLAwnqb3Ioqdb9bOMnQxUyfgi_0dZE2Fc-7dK9XZqb-JM3SGl-cS-yyeSHihBAeK6GA8xvoeDbm72DdW5JzvTY2W47NAPm0kAlJ7AOKztjQLrLJVm1K-kIFjvZjtol8mS53mXihQXfqKO7rHCwYqHHNnPBatsJsHVAUCEl7jVfaN4P6HaHBBbCvQj1NQ7aP5Sti0oo4UY_MnqiQteZEt4aoiNpg8UV_dfIjJWyTLcyupoco-npGohS-3MK7Vddohz_a4NHWgURgs9K1ad7GtQ7mj-7WPOKaFD8ol2nYAROP3uSsjMUEdwTrmENnJzSGwDmLOBWa8wyDy3LnW3S8WV6NLo3uFan4sa2tvvrcwJ-yZKVK-J9HczfMgtcIVsXNt3BOtP4mfz8gemog_poAcw8KSLW_t7DQUIBgoD-CKocNb4r9G9hK1h06karg34KPTVj3yCGxX3AnBVfe9L6_CWueZvCIU9GAec3N2Sism560uMwjfcWmXAoBxPCblNmOUp7XhIHpWz2NMRledplgvSJMRrB8AE5Cz0B7JKqEwsCsyGqMhlrnwN2NfmH7OGMMe818URVGzFlO6I44aAwrJr27JsMQVty_c3tUfUMnmsu2M0yN5j9U-UmAZriVCvrH8YILGPk95Fx_Uunlk0wuKRgy3HfolmSsw\"\n}"}]},{"name":"post student","request":{"method":"POST","header":[],"url":{"raw":"http://127.0.0.1:8000/api/student/?name={{name}}&email={{email}}&address={{address}}&study_course={{study_course}}","protocol":"http","host":["127","0","0","1"],"port":"8000","path":["api","student",""],"query":[{"key":"name","value":"{{name}}"},{"key":"email","value":"{{email}}"},{"key":"address","value":"{{address}}"},{"key":"study_course","value":"{{study_course}}"}]}},"response":[{"name":"post student","originalRequest":{"method":"POST","header":[],"url":{"raw":"http://127.0.0.1:8000/api/student/?name={{name}}&email={{email}}&address={{address}}&study_course={{study_course}}","protocol":"http","host":["127","0","0","1"],"port":"8000","path":["api","student",""],"query":[{"key":"name","value":"{{name}}"},{"key":"email","value":"{{email}}"},{"key":"address","value":"{{address}}"},{"key":"study_course","value":"{{study_course}}"}]}},"status":"OK","code":200,"_postman_previewlanguage":"json","header":[{"key":"Host","value":"127.0.0.1:8000"},{"key":"Date","value":"Sat, 17 Dec 2022 13:43:45 GMT"},{"key":"Date","value":"Sat, 17 Dec 2022 13:43:45 GMT"},{"key":"Connection","value":"close"},{"key":"X-Powered-By","value":"PHP/8.1.10"},{"key":"Cache-Control","value":"no-cache, private"},{"key":"Content-Type","value":"application/json"},{"key":"X-RateLimit-Limit","value":"60"},{"key":"X-RateLimit-Remaining","value":"59"},{"key":"Access-Control-Allow-Origin","value":"*"}],"cookie":[],"body":"{\n    \"status_type\": \"store\",\n    \"status\": \"true\"\n}"}]},{"name":"get student","request":{"method":"GET","header":[],"url":{"raw":"http://127.0.0.1:8000/api/student/?page=3","protocol":"http","host":["127","0","0","1"],"port":"8000","path":["api","student",""],"query":[{"key":"page","value":"3"}]}},"response":[{"name":"get student","originalRequest":{"method":"GET","header":[],"url":{"raw":"http://127.0.0.1:8000/api/student/?page=3","protocol":"http","host":["127","0","0","1"],"port":"8000","path":["api","student",""],"query":[{"key":"page","value":"3"}]}},"status":"OK","code":200,"_postman_previewlanguage":"json","header":[{"key":"Host","value":"127.0.0.1:8000"},{"key":"Date","value":"Sat, 17 Dec 2022 13:42:28 GMT"},{"key":"Date","value":"Sat, 17 Dec 2022 13:42:28 GMT"},{"key":"Connection","value":"close"},{"key":"X-Powered-By","value":"PHP/8.1.10"},{"key":"Cache-Control","value":"no-cache, private"},{"key":"Content-Type","value":"application/json"},{"key":"X-RateLimit-Limit","value":"60"},{"key":"X-RateLimit-Remaining","value":"59"},{"key":"Access-Control-Allow-Origin","value":"*"}],"cookie":[],"body":"{\n    \"current_page\": 3,\n    \"data\": [\n        {\n            \"name\": \"Tamatha\",\n            \"address\": \"636 Zephyr Hollow\"\n        },\n        {\n            \"name\": \"Tyler\",\n            \"address\": \"541 Eighth Annex\"\n        },\n        {\n            \"name\": \"Jake\",\n            \"address\": \"566 Tawny Track\"\n        }\n    ],\n    \"first_page_url\": \"http://127.0.0.1:8000/api/student?page=1\",\n    \"from\": 7,\n    \"last_page\": 6,\n    \"last_page_url\": \"http://127.0.0.1:8000/api/student?page=6\",\n    \"links\": [\n        {\n            \"url\": \"http://127.0.0.1:8000/api/student?page=2\",\n            \"label\": \"&laquo; Previous\",\n            \"active\": false\n        },\n        {\n            \"url\": \"http://127.0.0.1:8000/api/student?page=1\",\n            \"label\": \"1\",\n            \"active\": false\n        },\n        {\n            \"url\": \"http://127.0.0.1:8000/api/student?page=2\",\n            \"label\": \"2\",\n            \"active\": false\n        },\n        {\n            \"url\": \"http://127.0.0.1:8000/api/student?page=3\",\n            \"label\": \"3\",\n            \"active\": true\n        },\n        {\n            \"url\": \"http://127.0.0.1:8000/api/student?page=4\",\n            \"label\": \"4\",\n            \"active\": false\n        },\n        {\n            \"url\": \"http://127.0.0.1:8000/api/student?page=5\",\n            \"label\": \"5\",\n            \"active\": false\n        },\n        {\n            \"url\": \"http://127.0.0.1:8000/api/student?page=6\",\n            \"label\": \"6\",\n            \"active\": false\n        },\n        {\n            \"url\": \"http://127.0.0.1:8000/api/student?page=4\",\n            \"label\": \"Next &raquo;\",\n            \"active\": false\n        }\n    ],\n    \"next_page_url\": \"http://127.0.0.1:8000/api/student?page=4\",\n    \"path\": \"http://127.0.0.1:8000/api/student\",\n    \"per_page\": 3,\n    \"prev_page_url\": \"http://127.0.0.1:8000/api/student?page=2\",\n    \"to\": 9,\n    \"total\": 18\n}"}]},{"name":"get student by id","request":{"method":"GET","header":[],"url":{"raw":"http://localhost:8000/api/student/1","protocol":"http","host":["localhost"],"port":"8000","path":["api","student","1"]}},"response":[{"name":"get student by id","originalRequest":{"method":"GET","header":[],"url":{"raw":"http://localhost:8000/api/student/2","protocol":"http","host":["localhost"],"port":"8000","path":["api","student","2"]}},"status":"OK","code":200,"_postman_previewlanguage":"json","header":[{"key":"Host","value":"localhost:8000"},{"key":"Date","value":"Sat, 17 Dec 2022 13:43:52 GMT"},{"key":"Date","value":"Sat, 17 Dec 2022 13:43:52 GMT"},{"key":"Connection","value":"close"},{"key":"X-Powered-By","value":"PHP/8.1.10"},{"key":"Cache-Control","value":"no-cache, private"},{"key":"Content-Type","value":"application/json"},{"key":"X-RateLimit-Limit","value":"60"},{"key":"X-RateLimit-Remaining","value":"58"},{"key":"Access-Control-Allow-Origin","value":"*"}],"cookie":[],"body":"{\n    \"id\": 2,\n    \"name\": \"Kizzie\",\n    \"email\": \"mary_proctor8846@justemail.net\",\n    \"address\": \"873 Hazy Bear Hollow\",\n    \"study_course\": \"Library Assistant\",\n    \"created_at\": \"2022-12-17T13:37:00.000000Z\",\n    \"updated_at\": \"2022-12-17T13:37:00.000000Z\"\n}"}]},{"name":"get student by name","request":{"method":"GET","header":[],"url":{"raw":"http://localhost:8000/api/student/name?name=Kristal","protocol":"http","host":["localhost"],"port":"8000","path":["api","student","name"],"query":[{"key":"name","value":"Kristal"}]}},"response":[{"name":"get student by name","originalRequest":{"method":"GET","header":[],"url":{"raw":"http://localhost:8000/api/student/name?name=Kristal","protocol":"http","host":["localhost"],"port":"8000","path":["api","student","name"],"query":[{"key":"name","value":"Kristal"}]}},"status":"OK","code":200,"_postman_previewlanguage":"json","header":[{"key":"Host","value":"localhost:8000"},{"key":"Date","value":"Sat, 17 Dec 2022 13:43:58 GMT"},{"key":"Date","value":"Sat, 17 Dec 2022 13:43:58 GMT"},{"key":"Connection","value":"close"},{"key":"X-Powered-By","value":"PHP/8.1.10"},{"key":"Cache-Control","value":"no-cache, private"},{"key":"Content-Type","value":"application/json"},{"key":"X-RateLimit-Limit","value":"60"},{"key":"X-RateLimit-Remaining","value":"57"},{"key":"Access-Control-Allow-Origin","value":"*"}],"cookie":[],"body":"{\n    \"current_page\": 1,\n    \"data\": [\n        {\n            \"name\": \"Kristal\",\n            \"address\": \"P.O. Box 57806\"\n        }\n    ],\n    \"first_page_url\": \"http://localhost:8000/api/student/name?page=1\",\n    \"from\": 1,\n    \"last_page\": 1,\n    \"last_page_url\": \"http://localhost:8000/api/student/name?page=1\",\n    \"links\": [\n        {\n            \"url\": null,\n            \"label\": \"&laquo; Previous\",\n            \"active\": false\n        },\n        {\n            \"url\": \"http://localhost:8000/api/student/name?page=1\",\n            \"label\": \"1\",\n            \"active\": true\n        },\n        {\n            \"url\": null,\n            \"label\": \"Next &raquo;\",\n            \"active\": false\n        }\n    ],\n    \"next_page_url\": null,\n    \"path\": \"http://localhost:8000/api/student/name\",\n    \"per_page\": 1,\n    \"prev_page_url\": null,\n    \"to\": 1,\n    \"total\": 1\n}"}]},{"name":"get student by email","request":{"method":"GET","header":[],"url":{"raw":"http://localhost:8000/api/student/email?email=kizzie@gmail.com","protocol":"http","host":["localhost"],"port":"8000","path":["api","student","email"],"query":[{"key":"email","value":"kizzie@gmail.com"}]}},"response":[{"name":"get student by email","originalRequest":{"method":"GET","header":[],"url":{"raw":"http://localhost:8000/api/student/email?email=kizzie@gmail.com","protocol":"http","host":["localhost"],"port":"8000","path":["api","student","email"],"query":[{"key":"email","value":"kizzie@gmail.com"}]}},"status":"OK","code":200,"_postman_previewlanguage":"json","header":[{"key":"Host","value":"localhost:8000"},{"key":"Date","value":"Sat, 17 Dec 2022 13:44:02 GMT"},{"key":"Date","value":"Sat, 17 Dec 2022 13:44:02 GMT"},{"key":"Connection","value":"close"},{"key":"X-Powered-By","value":"PHP/8.1.10"},{"key":"Cache-Control","value":"no-cache, private"},{"key":"Content-Type","value":"application/json"},{"key":"X-RateLimit-Limit","value":"60"},{"key":"X-RateLimit-Remaining","value":"56"},{"key":"Access-Control-Allow-Origin","value":"*"}],"cookie":[],"body":"{\n    \"current_page\": 1,\n    \"data\": [],\n    \"first_page_url\": \"http://localhost:8000/api/student/email?page=1\",\n    \"from\": null,\n    \"last_page\": 1,\n    \"last_page_url\": \"http://localhost:8000/api/student/email?page=1\",\n    \"links\": [\n        {\n            \"url\": null,\n            \"label\": \"&laquo; Previous\",\n            \"active\": false\n        },\n        {\n            \"url\": \"http://localhost:8000/api/student/email?page=1\",\n            \"label\": \"1\",\n            \"active\": true\n        },\n        {\n            \"url\": null,\n            \"label\": \"Next &raquo;\",\n            \"active\": false\n        }\n    ],\n    \"next_page_url\": null,\n    \"path\": \"http://localhost:8000/api/student/email\",\n    \"per_page\": 1,\n    \"prev_page_url\": null,\n    \"to\": null,\n    \"total\": 0\n}"}]},{"name":"put student","request":{"method":"PUT","header":[],"url":{"raw":"http://127.0.0.1:8000/api/student/{{name}}?email={{email}}&address={{address}}&study_course={{study_course}}","protocol":"http","host":["127","0","0","1"],"port":"8000","path":["api","student","{{name}}"],"query":[{"key":"email","value":"{{email}}"},{"key":"address","value":"{{address}}"},{"key":"study_course","value":"{{study_course}}"}]}},"response":[{"name":"put student","originalRequest":{"method":"PUT","header":[],"url":{"raw":"http://127.0.0.1:8000/api/student/{{name}}?email={{email}}&address={{address}}&study_course={{study_course}}","protocol":"http","host":["127","0","0","1"],"port":"8000","path":["api","student","{{name}}"],"query":[{"key":"email","value":"{{email}}"},{"key":"address","value":"{{address}}"},{"key":"study_course","value":"{{study_course}}"}]}},"status":"OK","code":200,"_postman_previewlanguage":"json","header":[{"key":"Host","value":"127.0.0.1:8000"},{"key":"Date","value":"Sat, 17 Dec 2022 13:44:06 GMT"},{"key":"Date","value":"Sat, 17 Dec 2022 13:44:06 GMT"},{"key":"Connection","value":"close"},{"key":"X-Powered-By","value":"PHP/8.1.10"},{"key":"Cache-Control","value":"no-cache, private"},{"key":"Content-Type","value":"application/json"},{"key":"X-RateLimit-Limit","value":"60"},{"key":"X-RateLimit-Remaining","value":"55"},{"key":"Access-Control-Allow-Origin","value":"*"}],"cookie":[],"body":"{\n    \"status_type\": \"update\",\n    \"status\": true\n}"}]},{"name":"delete student","request":{"method":"DELETE","header":[],"url":{"raw":"http://localhost:8000/api/student/{{name}}","protocol":"http","host":["localhost"],"port":"8000","path":["api","student","{{name}}"]}},"response":[{"name":"delete student","originalRequest":{"method":"DELETE","header":[],"url":{"raw":"http://localhost:8000/api/student/{{name}}","protocol":"http","host":["localhost"],"port":"8000","path":["api","student","{{name}}"]}},"status":"OK","code":200,"_postman_previewlanguage":"json","header":[{"key":"Host","value":"localhost:8000"},{"key":"Date","value":"Sat, 17 Dec 2022 13:44:11 GMT"},{"key":"Date","value":"Sat, 17 Dec 2022 13:44:11 GMT"},{"key":"Connection","value":"close"},{"key":"X-Powered-By","value":"PHP/8.1.10"},{"key":"Cache-Control","value":"no-cache, private"},{"key":"Content-Type","value":"application/json"},{"key":"X-RateLimit-Limit","value":"60"},{"key":"X-RateLimit-Remaining","value":"54"},{"key":"Access-Control-Allow-Origin","value":"*"}],"cookie":[],"body":"{\n    \"status_type\": \"delete\",\n    \"status\": true\n}"}]}],"auth":{"type":"bearer","bearer":[{"key":"token","value":"eyJ0eXAiOiJKV1QiLCJhbGciOiJSUzI1NiJ9.eyJhdWQiOiIzIiwianRpIjoiN2JhZmM4NjE5ZTY1ODI5ZTYxZDk2ZDZmMTcxMGU0MTFmNmYxZDM5ZjczYjA2OGE3YWJhNzVjMjBhM2Y0NTkzNzczYmJlMzk2NDUyOGQxYjYiLCJpYXQiOjE2NzEyODM4MDkuNzY0OTYxLCJuYmYiOjE2NzEyODM4MDkuNzY0OTYzLCJleHAiOjE3MDI4MTk4MDkuNzYyMTI4LCJzdWIiOiIxIiwic2NvcGVzIjpbXX0.oHtdaYsA5ZvlXWTgzSwkjX0-_dO2QuIS3y1TohWNJYzRvu3XEBiAIQ9ry1e8b1MBvyzbTZH54C8ttuUAR2EwiuYcbHUeyw9i1LXXqpkD6KxDDutfHYnzjpDTEtsCjDA8V5n8NR79OVLuhiGSf0J4TszO4UH8fxAoanNx3BnTrExkyD9e-VMeWrofu4PEXDxUn_PEI1qugIoMY8oxDFJmm46xL1ZlHoZYgsm1ZtmuebQySwYJS9It2QMVytlWT6ABtxuWfkHsLRbJP-CLuwRBKzxoLa-eF4WeOZxsEONqgg8OdCUgzQW5Ggjs-fnh6DPYlcQnGMtj2xi3DXFkXqeUCrzV7uEiYnAOZtjJRZzx4RBSfikVvYkCydwtRhdAwHyOmOkRiJNxk2Zjkpc5ENTg6VNurlkwET4yW3NjBa8fy9HH7WKEhB8qe5b0V_Jq5WMhtXQuvt4J0h-dFeJyxNECC0FrEhREgvDmJzbmbF8kk8VZS_YcSEV-I0Issee3fznqWl648tk8jvlftVFbWNVIvab-Z_1VLrH6hd4s7mCRvl7z9tbEx_31kJMzVqT_ECB5v2J4x8v0QG286SCj8A710yjMFXwY6kcngaYlyX8C5JRFYYYfRlEoHjBSH-DYICb2MkbnXwfiK1aLim84fOVO6fhBeNHzCeKdv_Jbhljg-O0","type":"string"}]},"event":[{"listen":"prerequest","script":{"type":"text/javascript","exec":[""]}},{"listen":"test","script":{"type":"text/javascript","exec":[""]}}]}]}